…
``` r
pckgs <- c('fable','fable.prophet','tsibble','feasts')
# install.packages(pckgs) # install packages of 'tidyverts' ecosystem
lapply(X = c(pckgs,'tidyverse'), FUN = library, character.only = TRUE) # load 'tidyverts' + 'tidyverse' packages
```

``` r
# extract and filter multiple timeseries data frame from tsibble datasets
data(tourism,package = 'tsibble')
tourism_melb <- tourism %>% filter(Region == "Melbourne",State=="Victoria") %>% select(-Region,-State)
tourism_melb # you can see "Key: Purpose" in title (4 time series groups:Business,Holiday,Visiting,Other), see tsibble docs about create key
```

    ## # A tsibble: 320 x 3 [1Q]
    ## # Key:       Purpose [4]
    ##    Quarter Purpose  Trips
    ##      <qtr> <chr>    <dbl>
    ##  1 1998 Q1 Business  405.
    ##  2 1998 Q2 Business  408.
    ##  3 1998 Q3 Business  486.
    ##  4 1998 Q4 Business  429.
    ##  5 1999 Q1 Business  361.
    ##  6 1999 Q2 Business  486.
    ##  7 1999 Q3 Business  359.
    ##  8 1999 Q4 Business  426.
    ##  9 2000 Q1 Business  495.
    ## 10 2000 Q2 Business  499.
    ## # … with 310 more rows
…
    ## # A mable: 4 x 7
    ## # Key:     Purpose [4]
    ##   Purpose           ets        arima   snaive   theta   prophet       combine
    ##   <chr>         <model>      <model>  <model> <model>   <model>       <model>
    ## 1 Business <ETS(A,A,A)> <NULL model> <SNAIVE> <THETA> <prophet> <COMBINATION>
    ## 2 Holiday  <ETS(M,A,A)> <NULL model> <SNAIVE> <THETA> <prophet> <COMBINATION>
    ## 3 Other    <ETS(M,A,N)> <NULL model> <SNAIVE> <THETA> <prophet> <COMBINATION>
    ## 4 Visiting <ETS(A,A,A)> <NULL model> <SNAIVE> <THETA> <prophet> <COMBINATION>

``` r
fc <- fit %>% forecast(h = "2 years") # create forecasts from each model for each timeseries
fc
```

    ## # A fable: 192 x 5 [1Q]
    ## # Key:     Purpose, .model [24]
    ##    Purpose  .model Quarter        Trips .mean
    ##    <chr>    <chr>    <qtr>       <dist> <dbl>
    ##  1 Business ets    2016 Q1 N(470, 3380)  470.
    ##  2 Business ets    2016 Q2 N(546, 3470)  546.
    ##  3 Business ets    2016 Q3 N(562, 3560)  562.
    ##  4 Business ets    2016 Q4 N(530, 3651)  530.
    ##  5 Business ets    2017 Q1 N(475, 3741)  475.
    ##  6 Business ets    2017 Q2 N(551, 3831)  551.
    ##  7 Business ets    2017 Q3 N(567, 3922)  567.
    ##  8 Business ets    2017 Q4 N(535, 4012)  535.
    ##  9 Business arima  2016 Q1           NA   NA 
    ## 10 Business arima  2016 Q2           NA   NA 
    ## # … with 182 more rows
…
``` r
ac <- fc %>% accuracy(data = tourism_melb,measures = list(mape=MAPE, rmse=RMSE)) %>% 
  relocate(Purpose,.before = .model)%>% arrange(Purpose,rmse) # evaluate models accuracy by test period (>'2015 Q4')
ac
```

    ## # A tibble: 24 × 5
    ##    Purpose  .model  .type   mape  rmse
    ##    <chr>    <chr>   <chr>  <dbl> <dbl>
    ##  1 Business prophet Test   11.4   84.0
    ##  2 Business snaive  Test   15.1  111. 
    ##  3 Business ets     Test   15.2  116. 
    ##  4 Business theta   Test   16.0  122. 
    ##  5 Business arima   Test  NaN    NaN  
    ##  6 Business combine Test  NaN    NaN  
    ##  7 Holiday  prophet Test    7.27  72.4
    ##  8 Holiday  ets     Test    7.78  76.7
    ##  9 Holiday  theta   Test    7.91  84.3
    ## 10 Holiday  snaive  Test    9.46  88.7
    ## # … with 14 more rows
…
    ## # A tibble: 4 × 5
    ##   Purpose  .model  .type  mape  rmse
    ##   <chr>    <chr>   <chr> <dbl> <dbl>
    ## 1 Business prophet Test  11.4   84.0
    ## 2 Holiday  prophet Test   7.27  72.4
    ## 3 Other    ets     Test   7.60  14.1
    ## 4 Visiting prophet Test  11.2  101.

``` r
fc_bestmodels <- fc %>% inner_join(best_ac,by = c('Purpose','.model')) %>% tibble() %>% 
  select(Purpose,  Quarter, frcst_val = .mean,.model) # get best forecast values
fc_bestmodels
```

    ## # A tibble: 32 × 4
    ##    Purpose  Quarter frcst_val .model 
    ##    <chr>      <qtr>     <dbl> <chr>  
    ##  1 Business 2016 Q1      478. prophet
    ##  2 Business 2016 Q2      565. prophet
    ##  3 Business 2016 Q3      609. prophet
    ##  4 Business 2016 Q4      574. prophet
    ##  5 Business 2017 Q1      493. prophet
    ##  6 Business 2017 Q2      588. prophet
    ##  7 Business 2017 Q3      628. prophet
    ##  8 Business 2017 Q4      586. prophet
    ##  9 Holiday  2016 Q1      688. prophet
    ## 10 Holiday  2016 Q2      622. prophet
    ## # … with 22 more rows

## Feature extraction for clustering or search unusual time series

Below is a small example of how to use the [feasts
package](https://feasts.tidyverts.org/) extract characteristics from
time series for their subsequent clustering or search for unusual
examples after dimension compression

``` r
# https://robjhyndman.com/hyndsight/fbtsa/
# Compute features
tourism # 304 timeseries (key[304] in table title)
```

    ## # A tsibble: 24,320 x 5 [1Q]
    ## # Key:       Region, State, Purpose [304]
    ##    Quarter Region   State           Purpose  Trips
    ##      <qtr> <chr>    <chr>           <chr>    <dbl>
    ##  1 1998 Q1 Adelaide South Australia Business  135.
    ##  2 1998 Q2 Adelaide South Australia Business  110.
    ##  3 1998 Q3 Adelaide South Australia Business  166.
    ##  4 1998 Q4 Adelaide South Australia Business  127.
    ##  5 1999 Q1 Adelaide South Australia Business  137.
    ##  6 1999 Q2 Adelaide South Australia Business  200.
    ##  7 1999 Q3 Adelaide South Australia Business  169.
    ##  8 1999 Q4 Adelaide South Australia Business  134.
    ##  9 2000 Q1 Adelaide South Australia Business  154.
    ## 10 2000 Q2 Adelaide South Australia Business  169.
    ## # … with 24,310 more rows

``` r
tourism_features <- tourism %>% features(Trips, feature_set(pkgs="feasts"))
tourism_features # 50(!!!) features extracted for each time series by 1 line of code
```

    ## # A tibble: 304 × 45
    ##    Region         State Purpose trend_strength seasonal_streng… seasonal_peak_y…
    ##    <chr>          <chr> <chr>            <dbl>            <dbl>            <dbl>
    ##  1 Adelaide       Sout… Busine…          0.464            0.407                3
    ##  2 Adelaide       Sout… Holiday          0.554            0.619                1
    ##  3 Adelaide       Sout… Other            0.746            0.202                2
    ##  4 Adelaide       Sout… Visiti…          0.435            0.452                1
    ##  5 Adelaide Hills Sout… Busine…          0.464            0.179                3
    ##  6 Adelaide Hills Sout… Holiday          0.528            0.296                2
    ##  7 Adelaide Hills Sout… Other            0.593            0.404                2
    ##  8 Adelaide Hills Sout… Visiti…          0.488            0.254                0
    ##  9 Alice Springs  Nort… Busine…          0.534            0.251                0
    ## 10 Alice Springs  Nort… Holiday          0.381            0.832                3
    ## # … with 294 more rows, and 39 more variables: seasonal_trough_year <dbl>,
    ## #   spikiness <dbl>, linearity <dbl>, curvature <dbl>, stl_e_acf1 <dbl>,
    ## #   stl_e_acf10 <dbl>, acf1 <dbl>, acf10 <dbl>, diff1_acf1 <dbl>,
    ## #   diff1_acf10 <dbl>, diff2_acf1 <dbl>, diff2_acf10 <dbl>, season_acf1 <dbl>,
    ## #   pacf5 <dbl>, diff1_pacf5 <dbl>, diff2_pacf5 <dbl>, season_pacf <dbl>,
    ## #   zero_run_mean <dbl>, nonzero_squared_cv <dbl>, zero_start_prop <dbl>,
    ## #   zero_end_prop <dbl>, lambda_guerrero <dbl>, nsdiffs <int>, bp_stat <dbl>, …
…
